文献复现
…
# 读取Excel数据：
# 自动识别列类型
# 保留原始列名
# 存储在octtet_data数据框中

octtet_data <- read_excel(file)  # 读取Excel文件

# 打印数据框结构：
# - 检查列名是否正确
# - 查看前几行数据
# - 确认数据类型
octtet_data 

# A tibble: 425 × 5
   mg_al_fe_to_si Source                          Basin source_order basin_order
            <dbl> <chr>                           <chr>        <dbl>       <dbl>
 1           0.07 Aggregate-attached, Sediment-f… Sant…            3           3
 2           0.35 Aggregate-attached, Sediment-f… Sant…            3           3
 3           0.29 Aggregate-attached, Sediment-f… Sant…            3           3
 4           0.29 Aggregate-attached, Sediment-f… Sant…            3           3
 5           0.04 Aggregate-attached, Sediment-f… Sant…            3           3
 6           0.41 Aggregate-attached, Sediment-f… Sant…            3           3
 7           0.4  Aggregate-attached, Sediment-f… Sant…            3           3
 8           0.12 Aggregate-attached, Sediment-f… Sant…            3           3
 9           0.34 Aggregate-attached, Sediment-f… Sant…            3           3
10           0.19 Aggregate-attached, Sediment-f… Sant…            3           3
# ℹ 415 more rows
…
# 读取Dataset S2.xlsx文件
# 使用xfun::magic_path()自动定位文件路径，避免绝对路径依赖
AlSi_data <- read_excel(xfun::magic_path('Dataset S2.xlsx'))
AlSi_data

# A tibble: 425 × 5
   Al.per.Si Source                           Basin `Source order` `Basin order`
       <dbl> <chr>                            <chr>          <dbl>         <dbl>
 1    0      Aggregate-attached, Sediment-fr… Sant…              3             3
 2    0.196  Aggregate-attached, Sediment-fr… Sant…              3             3
 3    0.181  Aggregate-attached, Sediment-fr… Sant…              3             3
 4    0.182  Aggregate-attached, Sediment-fr… Sant…              3             3
 5    0.0285 Aggregate-attached, Sediment-fr… Sant…              3             3
 6    0.315  Aggregate-attached, Sediment-fr… Sant…              3             3
 7    0.238  Aggregate-attached, Sediment-fr… Sant…              3             3
 8    0.0657 Aggregate-attached, Sediment-fr… Sant…              3             3
 9    0.194  Aggregate-attached, Sediment-fr… Sant…              3             3
10    0.146  Aggregate-attached, Sediment-fr… Sant…              3             3
# ℹ 415 more rows
…
